Web Data: APIs and Scraping
…
# Step 12: Check if First Director is missing 
# Identify First Director from the previous cleaned movierank dataframe:
datadf <- datadf %>%
  mutate(isfirst_dir = text %in% movierank$director_first)

sum(datadf$isfirst_dir)

## [1] 100

## Conclusion=> First Director is not missing

head(datadf,22)

## # A tibble: 22 x 14
##    text  ismovierank movienum isname isyear isMPAA islength isgenre isimdb_score
##    <chr> <lgl>          <int> <lgl>  <lgl>  <lgl>  <lgl>    <lgl>   <lgl>       
##  1 "1."  TRUE               1 FALSE  FALSE  FALSE  FALSE    FALSE   FALSE       
##  2 "Cit~ FALSE              1 TRUE   FALSE  FALSE  FALSE    FALSE   FALSE       
##  3 "(20~ FALSE              1 FALSE  TRUE   FALSE  FALSE    FALSE   FALSE       
##  4 "R"   FALSE              1 FALSE  FALSE  TRUE   FALSE    FALSE   FALSE       
##  5 "130~ FALSE              1 FALSE  FALSE  FALSE  TRUE     FALSE   FALSE       
##  6 "\nC~ FALSE              1 FALSE  FALSE  FALSE  FALSE    TRUE    FALSE       
##  7 "8.6" FALSE              1 FALSE  FALSE  FALSE  FALSE    FALSE   TRUE        
##  8 "79 ~ FALSE              1 FALSE  FALSE  FALSE  FALSE    FALSE   FALSE       
##  9 "Fer~ FALSE              1 FALSE  FALSE  FALSE  FALSE    FALSE   FALSE       
## 10 "726~ FALSE              1 FALSE  FALSE  FALSE  FALSE    FALSE   FALSE       
## # ... with 12 more rows, and 5 more variables: ismetascore <lgl>, isvote <lgl>,
## #   isreceipt <lgl>, iscountry <lgl>, isfirst_dir <lgl>
…
